{
    "symbols": [
        {
            "symbol": "BCNBTC",
            "step": "0.0000000001",
            "lot": "100",
            "currency": "BTC",
            "commodity": "BCN",
            "takeLiquidityRate": "0.001",
            "provideLiquidityRate": "-0.0001"
        },
        {
            "symbol": "BTCEUR",
            "step": "0.01",
            "lot": "0.01",
            "currency": "EUR",
            "commodity": "BTC",
            "takeLiquidityRate": "0.001",
            "provideLiquidityRate": "-0.0001"
        },
        {
            "symbol": "BTCUSD",
            "step": "0.01",
            "lot": "0.01",
            "currency": "USD",
            "commodity": "BTC",
            "takeLiquidityRate": "0.001",
            "provideLiquidityRate": "-0.0001"
        },
        {
            "symbol": "DASHBTC",
            "step": "0.000001",
            "lot": "0.001",
            "currency": "BTC",
            "commodity": "DASH",
            "takeLiquidityRate": "0.001",
            "provideLiquidityRate": "-0.0001"
        },
        {
            "symbol": "DOGEBTC",
            "step": "0.000000001",
            "lot": "1000",
            "currency": "BTC",
            "commodity": "DOGE",
            "takeLiquidityRate": "0.001",
            "provideLiquidityRate": "-0.0001"
        },
        {
            "symbol": "DOGEUSD",
            "step": "0.000001",
            "lot": "10",
            "currency": "USD",
            "commodity": "DOGE",
            "takeLiquidityRate": "0.001",
            "provideLiquidityRate": "-0.0001"
        },
        {
            "symbol": "DSHBTC",
            "step": "0.000000001",
            "lot": "1",
            "currency": "BTC",
            "commodity": "DSH",
            "takeLiquidityRate": "0.001",
            "provideLiquidityRate": "-0.0001"
        },
        {
            "symbol": "EMCBTC",
            "step": "0.00000001",
            "lot": "0.1",
            "currency": "BTC",
            "commodity": "EMC",
            "takeLiquidityRate": "0.001",
            "provideLiquidityRate": "-0.0001"
        },
        {
            "symbol": "ETHBTC",
            "step": "0.000001",
            "lot": "0.001",
            "currency": "BTC",
            "commodity": "ETH",
            "takeLiquidityRate": "0.001",
            "provideLiquidityRate": "-0.0001"
        }
    ]
}